{
  "variables": {
    "aws_access_key": "{{env `aws_access_key`}}",
    "aws_secret_key": "{{env `aws_secret_key`}}"
  },
  "builders": [
    {
      "type": "amazon-ebs",
      "access_key": "{{user `aws_access_key`}}",
      "secret_key": "{{user `aws_secret_key`}}",
      "region": "us-west-1",
      "source_ami": "ami-df6a8b9b",
      "instance_type": "t2.micro",
      "ssh_username": "ubuntu",
      "ami_name": "packer-base {{timestamp}}"
    }
  ],
  "provisioners": [
    {
      "type": "shell",
      "inline": [
        "sudo apt-get update",
        "sudo apt-get -y install git",
        "sudo wget https://opscode-omnibus-packages.s3.amazonaws.com/ubuntu/12.04/x86_64/chefdk_0.6.0-1_amd64.deb",
        "sudo dpkg -i chefdk_0.6.0-1_amd64.deb"
      ]
    },
    {
      "type": "file",
      "source": "solo.rb",
      "destination": "/home/ubuntu/solo.rb"
    }
  ]
}