{
    "name": "artifactory",
    "default_attributes": {},
    "override_attributes": {},
    "description": "This installs artifactory",
    "json_class": "Chef::Role",
    "chef_type": "role",
    "run_list": [
        "recipe[artifactory::default]"
    ]
}